p8105_HW3_sp3804
…
Problem 0 ## This problem focuses on structure of your submission, especially the use git and GitHub for reproducibility, R Projects to organize your work, R Markdown to write reproducible reports, relative paths to load data from local files, and reasonable naming structures for your files.

This dataset contains 1384617 rows and 15 columns. Observations are the level of items in orders by user. There are user / order variables  user ID, order ID, order day, and order hour. There are also item varialbes  name, aisle, department, and some numeric codes.

How many aisles, and which are most items from?

instacart %>%
  count(aisle)%>%
  arrange(desc(n))

## # A tibble: 134 x 2
##    aisle                              n
##    <chr>                          <int>
##  1 fresh vegetables              150609
##  2 fresh fruits                  150473
##  3 packaged vegetables fruits     78493
##  4 yogurt                         55240
##  5 packaged cheese                41699
##  6 water seltzer sparkling water  36617
##  7 milk                           32644
##  8 chips pretzels                 31269
##  9 soy lactosefree                26240
## 10 bread                          23635
## #  with 124 more rows
…
